{
  "orders": [
    {
      "id": 1,
      "public_id": "DHdAU7u5NBeb",
      "site_id": 6,
      "segment_id": 2,
      "project_id": 3,
      "action_id": 1,
      "created_at": "2021-03-30T14:41:48Z",
      "updated_at": "2021-03-30T14:46:25Z",
      "invoicenumber": "T2021.0004.0000001",
      "total_amount": "65.0",
      "currency": "EUR",
      "payment_status": "paid",
      "first_name": "John",
      "last_name": "Doe",
      "address": {
        "address": "Jansbuitensingel 29",
        "street": "Jansbuitensingel",
        "house_number": "29",
        "zipcode": "6811AD",
        "city": "Arnhem",
        "country": "NL"
      },
      "items": [
        {
          "product": {
            "id": 26,
            "variant_id": 3,
            "title": "Sweater",
            "variant_title": "XL",
            "price": "25.0",
            "currency": "EUR"
          },
          "quantity": 2,
          "amount": "50.0",
          "currency": "EUR"
        },
        {
          "product": {
            "id": 25,
            "variant_id": 2,
            "title": "T-shirt",
            "variant_title": "L",
            "price": "15.0",
            "currency": "EUR"
          },
          "quantity": 1,
          "amount": "15.0",
          "currency": "EUR"
        }
      ]
    }
  ],
  "links": {
    "pages": {
      "last": "https://api.kentaa.nl/v1/orders?page=31&per_page=1",
      "next": "https://api.kentaa.nl/v1/orders?page=2&per_page=1"
    }
  },
  "total_entries": 31,
  "total_pages": 31,
  "per_page": 1,
  "current_page": 1
}
