{
  "segments": [
    {
      "id": 12,
      "public_id": "ooEHne3FD5FT",
      "site_id": 1,
      "created_at": "2015-11-17T16:32:03Z",
      "updated_at": "2015-11-17T16:32:27Z",
      "external_reference": "Customer Campaign 1021AA1-11",
      "subdomain": "segment-2",
      "name": "Segment 2",
      "title": "Aut est maxime nostrum.",
      "description": "Maiores ut velit fugiat eos. Quae est nostrum rerum aut et nihil. Sequi eveniet occaecati et est corporis et enim.",
      "target_amount": 2685,
      "total_amount": "0.0",
      "total_donations": 0,
      "url": "https://segment-2.demo1.kentaa.nl/",
      "donate_url": "https://segment-2.demo1.kentaa.nl/donate",
      "banners": [
        {
          "id": 14,
          "created_at": "2015-11-17T16:32:11Z",
          "updated_at": "2015-11-17T16:32:11Z",
          "url": "https://cdn.kentaa.nl/carousel/file/segment_banners/banner/14/normal_93be693da7ec2dde1a85ea4aec3832a8dfc60330.JPG",
          "text": "example",
          "link": "http://www.example.com/",
          "locale": "nl"
        }
      ]
    }
  ],
  "links": {
    "pages": {
      "first": "https://api.kentaa.nl/v1/segments?page=1&per_page=1",
      "last": "https://api.kentaa.nl/v1/segments?page=3&per_page=1",
      "prev": "https://api.kentaa.nl/v1/segments?page=1&per_page=1",
      "next": "https://api.kentaa.nl/v1/segments?page=3&per_page=1"
    }
  },
  "total_entries": 3,
  "total_pages": 3,
  "per_page": 1,
  "current_page": 1
}
